#VRML V2.0 utf8
Transform {
children [
Shape {
appearance Appearance {
material Material {
ambientIntensity 1.000000
diffuseColor 0.000000 0.000000 0.000000
emissiveColor 0.000000 0.000000 0.000000
specularColor 0.000000 0.000000 0.000000
shininess 0.400000
transparency 0.000000
}
}
geometry IndexedFaceSet {
color Color {
color [
 0.000000 0.000000 0.000000
]
}
coord Coordinate {
point [
 -0.042500 -0.037500 -0.052500, -0.042500 -0.037500 -0.049000, -0.042500 -0.033500 -0.052500, -0.042500 -0.033500 -0.049000, -0.042500 0.033500 -0.052500,
 -0.042500 0.033500 -0.049000, -0.042500 0.037500 -0.052500, -0.042500 0.037500 -0.049000, -0.039500 -0.037500 -0.052500, -0.039500 -0.037500 -0.051000,
 -0.039500 -0.033500 -0.052500, -0.039500 -0.033500 -0.051000, -0.039500 0.033500 -0.052500, -0.039500 0.033500 -0.051000, -0.039500 0.037500 -0.052500,
 -0.039500 0.037500 -0.051000, -0.034500 -0.037500 -0.051000, -0.034500 -0.037500 -0.049000, -0.034500 -0.033500 -0.051000, -0.034500 -0.033500 -0.049000,
 -0.034500 0.033500 -0.051000, -0.034500 0.033500 -0.049000, -0.034500 0.037500 -0.051000, -0.034500 0.037500 -0.049000, -0.022500 -0.037500 -0.057000,
 -0.022500 -0.037500 -0.052987, -0.022500 -0.037500 -0.047987, -0.022500 -0.037500 -0.010000, -0.022500 -0.037500 -0.005000, -0.022500 -0.037500 0.000000,
 -0.022500 -0.035500 -0.010000, -0.022500 -0.035500 -0.005000, -0.022500 -0.033500 -0.057000, -0.022500 -0.033500 -0.052987, -0.022500 -0.033500 -0.047987,
 -0.022500 -0.033500 -0.005000, -0.022500 0.033500 -0.057000, -0.022500 0.033500 -0.052987, -0.022500 0.033500 -0.047987, -0.022500 0.033500 -0.005000,
 -0.022500 0.035500 -0.010000, -0.022500 0.035500 -0.005000, -0.022500 0.037500 -0.057000, -0.022500 0.037500 -0.052987, -0.022500 0.037500 -0.047987,
 -0.022500 0.037500 -0.010000, -0.022500 0.037500 -0.005000, -0.022500 0.037500 0.000000, -0.016539 -0.037500 -0.060000, -0.016539 -0.037500 -0.057000,
 -0.016539 -0.033500 -0.060000, -0.016539 -0.033500 -0.057000, -0.016539 0.033500 -0.060000, -0.016539 0.033500 -0.057000, -0.016539 0.037500 -0.060000,
 -0.016539 0.037500 -0.057000, -0.012500 -0.040500 -0.020000, -0.012500 -0.037500 -0.020000, -0.012500 -0.000000 -0.005000, -0.012500 -0.000000 0.000000,
 -0.012415 -0.040500 -0.020647, -0.012415 -0.040500 -0.019353, -0.012415 -0.037500 -0.020647, -0.012415 -0.037500 -0.019353, -0.012187 -0.002782 -0.005000,
 -0.012187 -0.002782 0.000000, -0.012187 0.002782 -0.005000, -0.012187 0.002782 0.000000, -0.012165 -0.040500 -0.021250, -0.012165 -0.040500 -0.018750,
 -0.012165 -0.037500 -0.021250, -0.012165 -0.037500 -0.018750, -0.011768 -0.040500 -0.021768, -0.011768 -0.040500 -0.018232, -0.011768 -0.037500 -0.021768,
 -0.011768 -0.037500 -0.018232, -0.011262 -0.005424 -0.005000, -0.011262 -0.005424 0.000000, -0.011262 0.005424 -0.005000, -0.011262 0.005424 0.000000,
 -0.011250 -0.040500 -0.022165, -0.011250 -0.040500 -0.017835, -0.011250 -0.037500 -0.022165, -0.011250 -0.037500 -0.017835, -0.010647 -0.040500 -0.022415,
 -0.010647 -0.040500 -0.017585, -0.010647 -0.037500 -0.022415, -0.010647 -0.037500 -0.017585, -0.010000 -0.040500 -0.022500, -0.010000 -0.040500 -0.017500,
 -0.010000 -0.037500 -0.022500, -0.010000 -0.037500 -0.017500, -0.009921 0.036000 -0.031253, -0.009921 0.036000 -0.028747, -0.009921 0.037500 -0.031253,
 -0.009921 0.037500 -0.028747, -0.009773 -0.007794 -0.005000, -0.009773 -0.007794 0.000000, -0.009773 0.007794 -0.005000, -0.009773 0.007794 0.000000,
 -0.009539 -0.037500 -0.060000, -0.009539 -0.033500 -0.060000, -0.009539 0.033500 -0.060000, -0.009539 0.037500 -0.060000, -0.009353 -0.040500 -0.022415,
 -0.009353 -0.040500 -0.017585, -0.009353 -0.037500 -0.022415, -0.009353 -0.037500 -0.017585, -0.009298 0.036000 -0.033681, -0.009298 0.036000 -0.026319,
 -0.009298 0.037500 -0.033681, -0.009298 0.037500 -0.026319, -0.008750 -0.040500 -0.022165, -0.008750 -0.040500 -0.017835, -0.008750 -0.037500 -0.022165,
 -0.008750 -0.037500 -0.017835, -0.008484 -0.037500 -0.062294, -0.008484 -0.033500 -0.062294, -0.008484 0.033500 -0.062294, -0.008484 0.037500 -0.062294,
 -0.008232 -0.040500 -0.021768, -0.008232 -0.040500 -0.018232, -0.008232 -0.037500 -0.021768, -0.008232 -0.037500 -0.018232, -0.008090 0.036000 -0.035878,
 -0.008090 0.036000 -0.024122, -0.008090 0.037500 -0.035878, -0.008090 0.037500 -0.024122, -0.007835 -0.040500 -0.021250, -0.007835 -0.040500 -0.018750,
 -0.007835 -0.037500 -0.021250, -0.007835 -0.037500 -0.018750, -0.007794 -0.009773 -0.005000, -0.007794 -0.009773 0.000000, -0.007794 0.009773 -0.005000,
 -0.007794 0.009773 0.000000, -0.007585 -0.040500 -0.020647, -0.007585 -0.040500 -0.019353, -0.007585 -0.037500 -0.020647, -0.007585 -0.037500 -0.019353,
 -0.007500 -0.040500 -0.020000, -0.007500 -0.037500 -0.020000, -0.007500 0.033500 -0.030000, -0.007500 0.036000 -0.030000, -0.007244 0.033500 -0.031941,
 -0.007244 0.033500 -0.028059, -0.007244 0.036000 -0.031941, -0.007244 0.036000 -0.028059, -0.006887 -0.037500 -0.064251, -0.006887 -0.033500 -0.064251,
 -0.006887 0.033500 -0.064251, -0.006887 0.037500 -0.064251, -0.006495 0.033500 -0.033750, -0.006495 0.033500 -0.026250, -0.006495 0.036000 -0.033750,
 -0.006495 0.036000 -0.026250, -0.006374 0.036000 -0.037705, -0.006374 0.036000 -0.022295, -0.006374 0.037500 -0.037705, -0.006374 0.037500 -0.022295,
 -0.006000 -0.037500 -0.057000, -0.006000 -0.033500 -0.057000, -0.006000 0.033500 -0.057000, -0.006000 0.037500 -0.057000, -0.005796 -0.037500 -0.058553,
 -0.005796 -0.037500 -0.055447, -0.005796 -0.033500 -0.058553, -0.005796 -0.033500 -0.055447, -0.005796 0.033500 -0.058553, -0.005796 0.033500 -0.055447,
 -0.005796 0.037500 -0.058553, -0.005796 0.037500 -0.055447, -0.005424 -0.011262 -0.005000, -0.005424 -0.011262 0.000000, -0.005424 0.011262 -0.005000,
 -0.005424 0.011262 0.000000, -0.005303 0.033500 -0.035303, -0.005303 0.033500 -0.024697, -0.005303 0.036000 -0.035303, -0.005303 0.036000 -0.024697,
 -0.005196 -0.037500 -0.060000, -0.005196 -0.037500 -0.054000, -0.005196 -0.033500 -0.060000, -0.005196 -0.033500 -0.054000, -0.005196 0.033500 -0.060000,
 -0.005196 0.033500 -0.054000, -0.005196 0.037500 -0.060000, -0.005196 0.037500 -0.054000, -0.004851 -0.037500 -0.065745, -0.004851 -0.033500 -0.065745,
 -0.004851 0.033500 -0.065745, -0.004851 0.037500 -0.065745, -0.004258 0.036000 -0.039048, -0.004258 0.036000 -0.020952, -0.004258 0.037500 -0.039048,
 -0.004258 0.037500 -0.020952, -0.004243 -0.037500 -0.061243, -0.004243 -0.037500 -0.052757, -0.004243 -0.033500 -0.061243, -0.004243 -0.033500 -0.052757,
 -0.004243 0.033500 -0.061243, -0.004243 0.033500 -0.052757, -0.004243 0.037500 -0.061243, -0.004243 0.037500 -0.052757, -0.003750 0.033500 -0.036495,
 -0.003750 0.033500 -0.023505, -0.003750 0.036000 -0.036495, -0.003750 0.036000 -0.023505, -0.003000 -0.037500 -0.062196, -0.003000 -0.037500 -0.051804,
 -0.003000 -0.033500 -0.062196, -0.003000 -0.033500 -0.051804, -0.003000 0.033500 -0.062196, -0.003000 0.033500 -0.051804, -0.003000 0.037500 -0.062196,
 -0.003000 0.037500 -0.051804, -0.002782 -0.012187 -0.005000, -0.002782 -0.012187 0.000000, -0.002782 0.012187 -0.005000, -0.002782 0.012187 0.000000,
 -0.002505 -0.037500 -0.066681, -0.002505 -0.033500 -0.066681, -0.002505 0.033500 -0.066681, -0.002505 0.037500 -0.066681, -0.001941 0.033500 -0.037244,
 -0.001941 0.033500 -0.022756, -0.001941 0.036000 -0.037244, -0.001941 0.036000 -0.022756, -0.001874 0.036000 -0.039823, -0.001874 0.036000 -0.020177,
 -0.001874 0.037500 -0.039823, -0.001874 0.037500 -0.020177, -0.001553 -0.037500 -0.062796, -0.001553 -0.037500 -0.051204, -0.001553 -0.033500 -0.062796,
 -0.001553 -0.033500 -0.051204, -0.001553 0.033500 -0.062796, -0.001553 0.033500 -0.051204, -0.001553 0.037500 -0.062796, -0.001553 0.037500 -0.051204,
 -0.000000 -0.037500 -0.067000, -0.000000 -0.037500 -0.063000, 0.000000 -0.037500 -0.051000, -0.000000 -0.033500 -0.067000, 0.000000 -0.033500 -0.063000,
 0.000000 -0.033500 -0.051000, 0.000000 -0.012500 -0.005000, 0.000000 -0.012500 0.000000, -0.000000 0.012500 -0.005000, -0.000000 0.012500 0.000000,
 0.000000 0.033500 -0.067000, 0.000000 0.033500 -0.063000, 0.000000 0.033500 -0.051000, 0.000000 0.033500 -0.037500, -0.000000 0.033500 -0.022500,
 0.000000 0.036000 -0.037500, -0.000000 0.036000 -0.022500, 0.000000 0.037500 -0.067000, 0.000000 0.037500 -0.063000, 0.000000 0.037500 -0.051000,
 0.000628 0.036000 -0.039980, 0.000628 0.036000 -0.020020, 0.000628 0.037500 -0.039980, 0.000628 0.037500 -0.020020, 0.001553 -0.037500 -0.062796,
 0.001553 -0.037500 -0.051204, 0.001553 -0.033500 -0.062796, 0.001553 -0.033500 -0.051204, 0.001553 0.033500 -0.062796, 0.001553 0.033500 -0.051204,
 0.001553 0.037500 -0.062796, 0.001553 0.037500 -0.051204, 0.001941 0.033500 -0.037244, 0.001941 0.033500 -0.022756, 0.001941 0.036000 -0.037244,
 0.001941 0.036000 -0.022756, 0.002505 -0.037500 -0.066681, 0.002505 -0.033500 -0.066681, 0.002505 0.033500 -0.066681, 0.002505 0.037500 -0.066681,
 0.002782 -0.012187 -0.005000, 0.002782 -0.012187 0.000000, 0.002782 0.012187 -0.005000, 0.002782 0.012187 0.000000, 0.003000 -0.037500 -0.062196,
 0.003000 -0.037500 -0.051804, 0.003000 -0.033500 -0.062196, 0.003000 -0.033500 -0.051804, 0.003000 0.033500 -0.062196, 0.003000 0.033500 -0.051804,
 0.003000 0.037500 -0.062196, 0.003000 0.037500 -0.051804, 0.003090 0.036000 -0.039511, 0.003090 0.036000 -0.020489, 0.003090 0.037500 -0.039511,
 0.003090 0.037500 -0.020489, 0.003750 0.033500 -0.036495, 0.003750 0.033500 -0.023505, 0.003750 0.036000 -0.036495, 0.003750 0.036000 -0.023505,
 0.004243 -0.037500 -0.061243, 0.004243 -0.037500 -0.052757, 0.004243 -0.033500 -0.061243, 0.004243 -0.033500 -0.052757, 0.004243 0.033500 -0.061243,
 0.004243 0.033500 -0.052757, 0.004243 0.037500 -0.061243, 0.004243 0.037500 -0.052757, 0.004851 -0.037500 -0.065745, 0.004851 -0.033500 -0.065745,
 0.004851 0.033500 -0.065745, 0.004851 0.037500 -0.065745, 0.005196 -0.037500 -0.060000, 0.005196 -0.037500 -0.054000, 0.005196 -0.033500 -0.060000,
 0.005196 -0.033500 -0.054000, 0.005196 0.033500 -0.060000, 0.005196 0.033500 -0.054000, 0.005196 0.037500 -0.060000, 0.005196 0.037500 -0.054000,
 0.005303 0.033500 -0.035303, 0.005303 0.033500 -0.024697, 0.005303 0.036000 -0.035303, 0.005303 0.036000 -0.024697, 0.005358 0.036000 -0.038443,
 0.005358 0.036000 -0.021557, 0.005358 0.037500 -0.038443, 0.005358 0.037500 -0.021557, 0.005424 -0.011262 -0.005000, 0.005424 -0.011262 0.000000,
 0.005424 0.011262 -0.005000, 0.005424 0.011262 0.000000, 0.005796 -0.037500 -0.058553, 0.005796 -0.037500 -0.055447, 0.005796 -0.033500 -0.058553,
 0.005796 -0.033500 -0.055447, 0.005796 0.033500 -0.058553, 0.005796 0.033500 -0.055447, 0.005796 0.037500 -0.058553, 0.005796 0.037500 -0.055447,
 0.006000 -0.037500 -0.057000, 0.006000 -0.033500 -0.057000, 0.006000 0.033500 -0.057000, 0.006000 0.037500 -0.057000, 0.006495 0.033500 -0.033750,
 0.006495 0.033500 -0.026250, 0.006495 0.036000 -0.033750, 0.006495 0.036000 -0.026250, 0.006887 -0.037500 -0.064251, 0.006887 -0.033500 -0.064251,
 0.006887 0.033500 -0.064251, 0.006887 0.037500 -0.064251, 0.007244 0.033500 -0.031941, 0.007244 0.033500 -0.028059, 0.007244 0.036000 -0.031941,
 0.007244 0.036000 -0.028059, 0.007290 0.036000 -0.036845, 0.007290 0.036000 -0.023155, 0.007290 0.037500 -0.036845, 0.007290 0.037500 -0.023155,
 0.007500 -0.040500 -0.020000, 0.007500 -0.037500 -0.020000, 0.007500 0.033500 -0.030000, 0.007500 0.036000 -0.030000, 0.007585 -0.040500 -0.020647,
 0.007585 -0.040500 -0.019353, 0.007585 -0.037500 -0.020647, 0.007585 -0.037500 -0.019353, 0.007794 -0.009773 -0.005000, 0.007794 -0.009773 0.000000,
 0.007794 0.009773 -0.005000, 0.007794 0.009773 0.000000, 0.007835 -0.040500 -0.021250, 0.007835 -0.040500 -0.018750, 0.007835 -0.037500 -0.021250,
 0.007835 -0.037500 -0.018750, 0.008232 -0.040500 -0.021768, 0.008232 -0.040500 -0.018232, 0.008232 -0.037500 -0.021768, 0.008232 -0.037500 -0.018232,
 0.008484 -0.037500 -0.062294, 0.008484 -0.033500 -0.062294, 0.008484 0.033500 -0.062294, 0.008484 0.037500 -0.062294, 0.008750 -0.040500 -0.022165,
 0.008750 -0.040500 -0.017835, 0.008750 -0.037500 -0.022165, 0.008750 -0.037500 -0.017835, 0.008763 0.036000 -0.034818, 0.008763 0.036000 -0.025182,
 0.008763 0.037500 -0.034818, 0.008763 0.037500 -0.025182, 0.009353 -0.040500 -0.022415, 0.009353 -0.040500 -0.017585, 0.009353 -0.037500 -0.022415,
 0.009353 -0.037500 -0.017585, 0.009539 -0.037500 -0.060000, 0.009539 -0.033500 -0.060000, 0.009539 0.033500 -0.060000, 0.009539 0.037500 -0.060000,
 0.009686 0.036000 -0.032487, 0.009686 0.036000 -0.027513, 0.009686 0.037500 -0.032487, 0.009686 0.037500 -0.027513, 0.009773 -0.007794 -0.005000,
 0.009773 -0.007794 0.000000, 0.009773 0.007794 -0.005000, 0.009773 0.007794 0.000000, 0.010000 -0.040500 -0.022500, 0.010000 -0.040500 -0.017500,
 0.010000 -0.037500 -0.022500, 0.010000 -0.037500 -0.017500, 0.010000 0.036000 -0.030000, 0.010000 0.037500 -0.030000, 0.010647 -0.040500 -0.022415,
 0.010647 -0.040500 -0.017585, 0.010647 -0.037500 -0.022415, 0.010647 -0.037500 -0.017585, 0.011250 -0.040500 -0.022165, 0.011250 -0.040500 -0.017835,
 0.011250 -0.037500 -0.022165, 0.011250 -0.037500 -0.017835, 0.011262 -0.005424 -0.005000, 0.011262 -0.005424 0.000000, 0.011262 0.005424 -0.005000,
 0.011262 0.005424 0.000000, 0.011768 -0.040500 -0.021768, 0.011768 -0.040500 -0.018232, 0.011768 -0.037500 -0.021768, 0.011768 -0.037500 -0.018232,
 0.012165 -0.040500 -0.021250, 0.012165 -0.040500 -0.018750, 0.012165 -0.037500 -0.021250, 0.012165 -0.037500 -0.018750, 0.012187 -0.002782 -0.005000,
 0.012187 -0.002782 0.000000, 0.012187 0.002782 -0.005000, 0.012187 0.002782 0.000000, 0.012415 -0.040500 -0.020647, 0.012415 -0.040500 -0.019353,
 0.012415 -0.037500 -0.020647, 0.012415 -0.037500 -0.019353, 0.012500 -0.040500 -0.020000, 0.012500 -0.037500 -0.020000, 0.012500 0.000000 -0.005000,
 0.012500 0.000000 0.000000, 0.016539 -0.037500 -0.060000, 0.016539 -0.037500 -0.057000, 0.016539 -0.033500 -0.060000, 0.016539 -0.033500 -0.057000,
 0.016539 0.033500 -0.060000, 0.016539 0.033500 -0.057000, 0.016539 0.037500 -0.060000, 0.016539 0.037500 -0.057000, 0.022500 -0.037500 -0.057000,
 0.022500 -0.037500 -0.052987, 0.022500 -0.037500 -0.047987, 0.022500 -0.037500 -0.010000, 0.022500 -0.037500 -0.005000, 0.022500 -0.037500 0.000000,
 0.022500 -0.035500 -0.010000, 0.022500 -0.035500 -0.005000, 0.022500 -0.033500 -0.057000, 0.022500 -0.033500 -0.052987, 0.022500 -0.033500 -0.047987,
 0.022500 -0.033500 -0.005000, 0.022500 0.033500 -0.057000, 0.022500 0.033500 -0.052987, 0.022500 0.033500 -0.047987, 0.022500 0.033500 -0.005000,
 0.022500 0.035500 -0.010000, 0.022500 0.035500 -0.005000, 0.022500 0.037500 -0.057000, 0.022500 0.037500 -0.052987, 0.022500 0.037500 -0.047987,
 0.022500 0.037500 -0.010000, 0.022500 0.037500 -0.005000, 0.022500 0.037500 0.000000, 0.034500 -0.037500 -0.051000, 0.034500 -0.037500 -0.049000,
 0.034500 -0.033500 -0.051000, 0.034500 -0.033500 -0.049000, 0.034500 0.033500 -0.051000, 0.034500 0.033500 -0.049000, 0.034500 0.037500 -0.051000,
 0.034500 0.037500 -0.049000, 0.039500 -0.037500 -0.052500, 0.039500 -0.037500 -0.051000, 0.039500 -0.033500 -0.052500, 0.039500 -0.033500 -0.051000,
 0.039500 0.033500 -0.052500, 0.039500 0.033500 -0.051000, 0.039500 0.037500 -0.052500, 0.039500 0.037500 -0.051000, 0.042500 -0.037500 -0.052500,
 0.042500 -0.037500 -0.049000, 0.042500 -0.033500 -0.052500, 0.042500 -0.033500 -0.049000, 0.042500 0.033500 -0.052500, 0.042500 0.033500 -0.049000,
 0.042500 0.037500 -0.052500, 0.042500 0.037500 -0.049000
]
}
normal Normal {
vector [
 -1.000000 0.000000 0.000000, -0.974928 -0.222521 0.000000, -0.974928 0.222521 0.000000, -0.968583 0.000000 -0.248690, -0.968583 0.000000 0.248690,
 -0.965926 0.000000 -0.258819, -0.965926 0.000000 0.258819, -0.953939 0.000000 -0.300000, -0.900969 -0.433884 0.000000, -0.900969 0.433884 0.000000,
 -0.876307 0.000000 -0.481754, -0.876307 0.000000 0.481754, -0.866025 0.000000 -0.500000, -0.866025 0.000000 0.500000, -0.848362 0.000000 -0.529417,
 -0.781832 -0.623490 0.000000, -0.781832 0.623490 0.000000, -0.728969 0.000000 -0.684547, -0.728969 0.000000 0.684547, -0.707107 0.000000 -0.707107,
 -0.707107 0.000000 0.707107, -0.688677 0.000000 -0.725069, -0.623490 -0.781832 0.000000, -0.623490 0.781832 0.000000, -0.535827 0.000000 -0.844328,
 -0.535827 0.000000 0.844328, -0.500000 0.000000 -0.866025, -0.500000 0.000000 0.866025, -0.485068 0.000000 -0.874476, -0.433884 -0.900969 0.000000,
 -0.433884 0.900969 0.000000, -0.309017 0.000000 -0.951057, -0.309017 0.000000 0.951057, -0.258819 0.000000 -0.965926, -0.258819 0.000000 0.965926,
 -0.250523 0.000000 -0.968111, -0.222521 -0.974928 0.000000, -0.222521 0.974928 0.000000, -0.163364 0.000000 -0.986566, -0.084112 0.000000 0.996456,
 -0.062791 0.000000 -0.998027, -0.062791 0.000000 0.998027, 0.000000 -1.000000 0.000000, 0.000000 0.000000 -1.000000, 0.000000 0.000000 1.000000,
 0.000000 1.000000 0.000000, 0.084112 0.000000 0.996456, 0.163364 0.000000 -0.986566, 0.187381 -0.000000 -0.982287, 0.187381 -0.000000 0.982287,
 0.222521 -0.974928 0.000000, 0.222521 0.974928 0.000000, 0.250523 0.000000 -0.968111, 0.258819 0.000000 -0.965926, 0.258819 0.000000 0.965926,
 0.425779 -0.000000 -0.904827, 0.425779 -0.000000 0.904827, 0.433884 -0.900969 0.000000, 0.433884 0.900969 0.000000, 0.485068 0.000000 -0.874476,
 0.500000 0.000000 -0.866025, 0.500000 0.000000 0.866025, 0.623490 -0.781832 0.000000, 0.623490 0.781832 0.000000, 0.637424 -0.000000 -0.770513,
 0.637424 -0.000000 0.770513, 0.688677 0.000000 -0.725069, 0.707107 0.000000 -0.707107, 0.707107 0.000000 0.707107, 0.781832 -0.623490 0.000000,
 0.781832 0.623490 0.000000, 0.809017 -0.000000 -0.587785, 0.809017 -0.000000 0.587785, 0.848362 0.000000 -0.529417, 0.866025 0.000000 -0.500000,
 0.866025 0.000000 0.500000, 0.900969 -0.433884 0.000000, 0.900969 0.433884 0.000000, 0.929776 -0.000000 -0.368125, 0.929776 -0.000000 0.368125,
 0.953939 0.000000 -0.300000, 0.965926 0.000000 -0.258819, 0.965926 0.000000 0.258819, 0.974928 -0.222521 0.000000, 0.974928 0.222521 0.000000,
 0.992115 -0.000000 -0.125333, 0.992115 -0.000000 0.125333, 1.000000 0.000000 0.000000
]
}
coordIndex [
 466, 472, 467, -1, 467, 472, 473, -1, 460, 457, 456, -1,
 459, 458, 461, -1, 465, 469, 477, -1, 456, 464, 460, -1,
 460, 464, 465, -1, 460, 465, 461, -1, 461, 465, 477, -1,
 461, 477, 459, -1, 476, 477, 471, -1, 471, 477, 469, -1,
 471, 469, 470, -1, 470, 469, 468, -1, 470, 468, 475, -1,
 475, 468, 474, -1, 40, 45, 44, -1, 47, 39, 29, -1,
 29, 39, 35, -1, 44, 38, 40, -1, 40, 38, 39, -1,
 40, 39, 41, -1, 41, 39, 47, -1, 41, 47, 46, -1,
 28, 29, 31, -1, 31, 29, 35, -1, 31, 35, 30, -1,
 30, 35, 34, -1, 30, 34, 27, -1, 27, 34, 26, -1,
 32, 24, 33, -1, 33, 24, 25, -1, 53, 36, 55, -1,
 55, 36, 42, -1, 453, 472, 451, -1, 451, 472, 466, -1,
 103, 54, 55, -1, 295, 263, 475, -1, 472, 453, 473, -1,
 473, 453, 474, -1, 473, 474, 484, -1, 484, 474, 485, -1,
 484, 485, 493, -1, 493, 485, 501, -1, 493, 501, 492, -1,
 492, 501, 500, -1, 453, 452, 158, -1, 158, 452, 399, -1,
 14, 6, 15, -1, 15, 6, 7, -1, 15, 7, 22, -1,
 22, 7, 23, -1, 22, 23, 43, -1, 43, 23, 44, -1,
 158, 194, 453, -1, 453, 194, 230, -1, 453, 230, 474, -1,
 474, 230, 262, -1, 474, 262, 294, -1, 475, 263, 45, -1,
 294, 326, 474, -1, 474, 326, 358, -1, 474, 358, 390, -1,
 263, 231, 45, -1, 45, 231, 195, -1, 45, 195, 159, -1,
 158, 291, 271, -1, 203, 187, 43, -1, 43, 187, 171, -1,
 43, 171, 163, -1, 390, 402, 474, -1, 474, 402, 413, -1,
 474, 413, 475, -1, 475, 413, 403, -1, 475, 403, 391, -1,
 159, 127, 45, -1, 45, 127, 111, -1, 45, 111, 44, -1,
 44, 111, 95, -1, 44, 95, 94, -1, 271, 259, 158, -1,
 158, 259, 239, -1, 158, 239, 215, -1, 391, 359, 475, -1,
 475, 359, 327, -1, 475, 327, 295, -1, 343, 339, 399, -1,
 399, 339, 319, -1, 399, 319, 158, -1, 158, 319, 307, -1,
 158, 307, 291, -1, 215, 203, 158, -1, 158, 203, 43, -1,
 158, 43, 126, -1, 126, 43, 44, -1, 126, 44, 110, -1,
 110, 44, 94, -1, 42, 43, 55, -1, 55, 43, 163, -1,
 55, 163, 103, -1, 103, 163, 170, -1, 103, 170, 119, -1,
 119, 170, 186, -1, 119, 186, 151, -1, 151, 186, 202, -1,
 151, 202, 191, -1, 191, 202, 214, -1, 191, 214, 223, -1,
 223, 214, 238, -1, 223, 238, 257, -1, 257, 238, 258, -1,
 257, 258, 279, -1, 279, 258, 270, -1, 279, 270, 311, -1,
 311, 270, 290, -1, 311, 290, 351, -1, 351, 290, 306, -1,
 351, 306, 383, -1, 383, 306, 318, -1, 383, 318, 399, -1,
 399, 318, 338, -1, 399, 338, 343, -1, 162, 169, 102, -1,
 289, 352, 344, -1, 201, 213, 253, -1, 451, 466, 467, -1,
 52, 102, 53, -1, 53, 102, 169, -1, 53, 169, 253, -1,
 253, 169, 185, -1, 253, 185, 201, -1, 344, 320, 289, -1,
 289, 320, 296, -1, 289, 296, 272, -1, 450, 451, 398, -1,
 398, 451, 317, -1, 398, 317, 337, -1, 490, 498, 491, -1,
 491, 498, 499, -1, 491, 499, 482, -1, 482, 499, 483, -1,
 482, 483, 467, -1, 467, 483, 468, -1, 467, 468, 451, -1,
 297, 321, 469, -1, 469, 321, 345, -1, 469, 345, 353, -1,
 36, 53, 37, -1, 37, 53, 38, -1, 37, 38, 20, -1,
 20, 38, 21, -1, 20, 21, 13, -1, 13, 21, 5, -1,
 13, 5, 12, -1, 12, 5, 4, -1, 213, 237, 253, -1,
 253, 237, 252, -1, 253, 252, 272, -1, 272, 252, 269, -1,
 272, 269, 289, -1, 289, 305, 352, -1, 352, 305, 317, -1,
 352, 317, 362, -1, 362, 317, 451, -1, 362, 451, 353, -1,
 353, 451, 468, -1, 353, 468, 469, -1, 337, 342, 398, -1,
 398, 342, 336, -1, 398, 336, 382, -1, 382, 336, 316, -1,
 382, 316, 350, -1, 350, 316, 304, -1, 350, 304, 310, -1,
 310, 304, 288, -1, 310, 288, 278, -1, 278, 288, 268, -1,
 278, 268, 250, -1, 250, 268, 251, -1, 250, 251, 222, -1,
 222, 251, 236, -1, 222, 236, 190, -1, 190, 236, 212, -1,
 190, 212, 150, -1, 150, 212, 200, -1, 150, 200, 118, -1,
 118, 200, 184, -1, 118, 184, 102, -1, 102, 184, 168, -1,
 102, 168, 162, -1, 253, 224, 53, -1, 53, 224, 204, -1,
 53, 204, 38, -1, 38, 204, 176, -1, 38, 176, 152, -1,
 145, 39, 142, -1, 142, 39, 38, -1, 142, 38, 144, -1,
 144, 38, 152, -1, 145, 153, 39, -1, 39, 153, 177, -1,
 39, 177, 205, -1, 205, 225, 39, -1, 39, 225, 254, -1,
 39, 254, 469, -1, 469, 254, 273, -1, 469, 273, 297, -1,
 43, 42, 37, -1, 37, 42, 36, -1, 47, 477, 46, -1,
 46, 477, 476, -1, 455, 454, 463, -1, 463, 454, 462, -1,
 280, 328, 465, -1, 132, 35, 96, -1, 96, 35, 76, -1,
 132, 172, 35, -1, 35, 172, 216, -1, 35, 216, 465, -1,
 465, 216, 246, -1, 465, 246, 280, -1, 328, 368, 465, -1,
 465, 368, 404, -1, 465, 404, 422, -1, 422, 434, 465, -1,
 465, 434, 444, -1, 465, 444, 469, -1, 469, 444, 436, -1,
 469, 436, 424, -1, 424, 406, 469, -1, 469, 406, 370, -1,
 469, 370, 330, -1, 174, 134, 39, -1, 39, 134, 98, -1,
 39, 98, 78, -1, 330, 282, 469, -1, 469, 282, 248, -1,
 469, 248, 39, -1, 39, 248, 218, -1, 39, 218, 174, -1,
 78, 66, 39, -1, 39, 66, 58, -1, 39, 58, 35, -1,
 35, 58, 64, -1, 35, 64, 76, -1, 437, 445, 477, -1,
 477, 445, 459, -1, 459, 445, 435, -1, 459, 435, 423, -1,
 423, 405, 459, -1, 459, 405, 369, -1, 459, 369, 329, -1,
 329, 281, 459, -1, 459, 281, 247, -1, 459, 247, 29, -1,
 29, 247, 217, -1, 29, 217, 173, -1, 173, 133, 29, -1,
 29, 133, 97, -1, 29, 97, 77, -1, 77, 65, 29, -1,
 29, 65, 59, -1, 29, 59, 47, -1, 47, 59, 67, -1,
 47, 67, 79, -1, 331, 371, 477, -1, 79, 99, 47, -1,
 47, 99, 135, -1, 47, 135, 175, -1, 175, 219, 47, -1,
 47, 219, 249, -1, 47, 249, 477, -1, 477, 249, 283, -1,
 477, 283, 331, -1, 371, 407, 477, -1, 477, 407, 425, -1,
 477, 425, 437, -1, 49, 48, 100, -1, 428, 420, 447, -1,
 447, 420, 416, -1, 447, 416, 410, -1, 443, 440, 447, -1,
 447, 440, 432, -1, 447, 432, 428, -1, 486, 494, 487, -1,
 487, 494, 495, -1, 487, 495, 478, -1, 478, 495, 479, -1,
 478, 479, 455, -1, 455, 479, 456, -1, 27, 63, 71, -1,
 71, 75, 27, -1, 27, 75, 83, -1, 27, 83, 87, -1,
 0, 8, 1, -1, 1, 8, 9, -1, 1, 9, 17, -1,
 17, 9, 16, -1, 17, 16, 26, -1, 26, 16, 25, -1,
 26, 25, 90, -1, 90, 86, 26, -1, 26, 86, 82, -1,
 26, 82, 74, -1, 74, 70, 26, -1, 26, 70, 62, -1,
 26, 62, 27, -1, 27, 62, 57, -1, 27, 57, 63, -1,
 27, 395, 457, -1, 457, 395, 411, -1, 457, 411, 417, -1,
 87, 91, 27, -1, 27, 91, 107, -1, 27, 107, 395, -1,
 395, 107, 115, -1, 395, 115, 123, -1, 417, 421, 457, -1,
 457, 421, 429, -1, 457, 429, 433, -1, 454, 455, 447, -1,
 447, 455, 456, -1, 447, 456, 443, -1, 443, 456, 457, -1,
 443, 457, 441, -1, 441, 457, 433, -1, 301, 313, 410, -1,
 165, 181, 90, -1, 446, 447, 396, -1, 396, 447, 410, -1,
 396, 410, 333, -1, 333, 410, 313, -1, 333, 340, 396, -1,
 396, 340, 332, -1, 396, 332, 380, -1, 380, 332, 312, -1,
 380, 312, 348, -1, 348, 312, 300, -1, 348, 300, 308, -1,
 308, 300, 284, -1, 308, 284, 276, -1, 276, 284, 264, -1,
 276, 264, 240, -1, 240, 264, 241, -1, 240, 241, 220, -1,
 220, 241, 232, -1, 220, 232, 188, -1, 188, 232, 208, -1,
 188, 208, 148, -1, 148, 208, 196, -1, 148, 196, 116, -1,
 116, 196, 180, -1, 116, 180, 100, -1, 100, 180, 164, -1,
 100, 164, 160, -1, 160, 165, 100, -1, 100, 165, 90, -1,
 100, 90, 49, -1, 49, 90, 25, -1, 49, 25, 24, -1,
 394, 265, 410, -1, 410, 265, 285, -1, 410, 285, 301, -1,
 138, 386, 378, -1, 375, 379, 139, -1, 181, 197, 90, -1,
 90, 197, 209, -1, 90, 209, 106, -1, 106, 209, 233, -1,
 106, 233, 114, -1, 114, 233, 242, -1, 114, 242, 265, -1,
 123, 131, 395, -1, 395, 131, 139, -1, 395, 139, 387, -1,
 387, 139, 379, -1, 386, 138, 394, -1, 394, 138, 130, -1,
 394, 130, 265, -1, 265, 130, 122, -1, 265, 122, 114, -1,
 378, 374, 138, -1, 138, 374, 366, -1, 138, 366, 141, -1,
 141, 366, 361, -1, 141, 361, 139, -1, 139, 361, 367, -1,
 139, 367, 375, -1, 462, 454, 449, -1, 449, 454, 447, -1,
 458, 459, 28, -1, 28, 459, 29, -1, 34, 35, 465, -1,
 267, 245, 465, -1, 462, 449, 463, -1, 463, 449, 464, -1,
 463, 464, 480, -1, 480, 464, 481, -1, 480, 481, 489, -1,
 489, 481, 497, -1, 489, 497, 488, -1, 488, 497, 496, -1,
 449, 448, 397, -1, 51, 32, 33, -1, 302, 314, 464, -1,
 464, 314, 334, -1, 464, 334, 341, -1, 267, 465, 287, -1,
 10, 2, 11, -1, 11, 2, 3, -1, 11, 3, 18, -1,
 18, 3, 19, -1, 18, 19, 33, -1, 33, 19, 34, -1,
 33, 34, 51, -1, 51, 34, 465, -1, 341, 335, 464, -1,
 464, 335, 315, -1, 464, 315, 465, -1, 465, 315, 303, -1,
 465, 303, 287, -1, 245, 235, 465, -1, 465, 235, 211, -1,
 465, 211, 199, -1, 183, 167, 101, -1, 381, 349, 266, -1,
 50, 51, 101, -1, 101, 51, 465, -1, 101, 465, 183, -1,
 183, 465, 199, -1, 302, 464, 286, -1, 286, 464, 449, -1,
 286, 449, 266, -1, 266, 449, 397, -1, 266, 397, 381, -1,
 167, 161, 101, -1, 101, 161, 166, -1, 101, 166, 117, -1,
 117, 166, 182, -1, 117, 182, 149, -1, 149, 182, 198, -1,
 149, 198, 189, -1, 189, 198, 210, -1, 189, 210, 221, -1,
 221, 210, 234, -1, 221, 234, 243, -1, 243, 234, 244, -1,
 243, 244, 277, -1, 277, 244, 266, -1, 277, 266, 309, -1,
 309, 266, 349, -1, 24, 32, 49, -1, 49, 32, 51, -1,
 460, 30, 457, -1, 457, 30, 27, -1, 31, 461, 28, -1,
 28, 461, 458, -1, 31, 30, 461, -1, 461, 30, 460, -1,
 234, 241, 244, -1, 244, 241, 264, -1, 244, 264, 266, -1,
 266, 264, 284, -1, 266, 284, 286, -1, 286, 284, 300, -1,
 286, 300, 302, -1, 302, 300, 312, -1, 302, 312, 314, -1,
 314, 312, 332, -1, 314, 332, 334, -1, 334, 332, 340, -1,
 334, 340, 341, -1, 341, 340, 333, -1, 341, 333, 335, -1,
 335, 333, 313, -1, 335, 313, 315, -1, 315, 313, 301, -1,
 315, 301, 303, -1, 303, 301, 285, -1, 303, 285, 287, -1,
 287, 285, 265, -1, 287, 265, 267, -1, 267, 265, 242, -1,
 267, 242, 245, -1, 245, 242, 233, -1, 245, 233, 235, -1,
 235, 233, 209, -1, 235, 209, 211, -1, 211, 209, 197, -1,
 211, 197, 199, -1, 199, 197, 181, -1, 199, 181, 183, -1,
 183, 181, 165, -1, 183, 165, 167, -1, 167, 165, 160, -1,
 167, 160, 161, -1, 161, 160, 164, -1, 161, 164, 166, -1,
 166, 164, 180, -1, 166, 180, 182, -1, 182, 180, 196, -1,
 182, 196, 198, -1, 198, 196, 208, -1, 198, 208, 210, -1,
 210, 208, 232, -1, 210, 232, 234, -1, 234, 232, 241, -1,
 415, 411, 409, -1, 409, 411, 395, -1, 409, 395, 393, -1,
 393, 395, 387, -1, 393, 387, 385, -1, 385, 387, 379, -1,
 385, 379, 377, -1, 377, 379, 375, -1, 377, 375, 373, -1,
 373, 375, 367, -1, 373, 367, 365, -1, 365, 367, 361, -1,
 365, 361, 360, -1, 360, 361, 366, -1, 360, 366, 364, -1,
 364, 366, 374, -1, 364, 374, 372, -1, 372, 374, 378, -1,
 372, 378, 376, -1, 376, 378, 386, -1, 376, 386, 384, -1,
 384, 386, 394, -1, 384, 394, 392, -1, 392, 394, 410, -1,
 392, 410, 408, -1, 408, 410, 416, -1, 408, 416, 414, -1,
 414, 416, 420, -1, 414, 420, 418, -1, 418, 420, 428, -1,
 418, 428, 426, -1, 426, 428, 432, -1, 426, 432, 430, -1,
 430, 432, 440, -1, 430, 440, 438, -1, 438, 440, 443, -1,
 438, 443, 442, -1, 442, 443, 441, -1, 442, 441, 439, -1,
 439, 441, 433, -1, 439, 433, 431, -1, 431, 433, 429, -1,
 431, 429, 427, -1, 427, 429, 421, -1, 427, 421, 419, -1,
 419, 421, 417, -1, 419, 417, 415, -1, 415, 417, 411, -1,
 415, 409, 408, -1, 408, 409, 393, -1, 408, 393, 385, -1,
 415, 408, 419, -1, 419, 408, 414, -1, 419, 414, 418, -1,
 418, 426, 419, -1, 419, 426, 430, -1, 419, 430, 427, -1,
 385, 377, 408, -1, 408, 377, 373, -1, 408, 373, 365, -1,
 372, 376, 408, -1, 408, 376, 384, -1, 408, 384, 392, -1,
 430, 438, 442, -1, 365, 360, 408, -1, 408, 360, 364, -1,
 408, 364, 372, -1, 442, 439, 430, -1, 430, 439, 431, -1,
 430, 431, 427, -1, 105, 91, 89, -1, 89, 91, 87, -1,
 89, 87, 85, -1, 85, 87, 83, -1, 85, 83, 81, -1,
 81, 83, 75, -1, 81, 75, 73, -1, 73, 75, 71, -1,
 73, 71, 69, -1, 69, 71, 63, -1, 69, 63, 61, -1,
 61, 63, 57, -1, 61, 57, 56, -1, 56, 57, 62, -1,
 56, 62, 60, -1, 60, 62, 70, -1, 60, 70, 68, -1,
 68, 70, 74, -1, 68, 74, 72, -1, 72, 74, 82, -1,
 72, 82, 80, -1, 80, 82, 86, -1, 80, 86, 84, -1,
 84, 86, 90, -1, 84, 90, 88, -1, 88, 90, 106, -1,
 88, 106, 104, -1, 104, 106, 114, -1, 104, 114, 112, -1,
 112, 114, 122, -1, 112, 122, 120, -1, 120, 122, 130, -1,
 120, 130, 128, -1, 128, 130, 138, -1, 128, 138, 136, -1,
 136, 138, 141, -1, 136, 141, 140, -1, 140, 141, 139, -1,
 140, 139, 137, -1, 137, 139, 131, -1, 137, 131, 129, -1,
 129, 131, 123, -1, 129, 123, 121, -1, 121, 123, 115, -1,
 121, 115, 113, -1, 113, 115, 107, -1, 113, 107, 105, -1,
 105, 107, 91, -1, 105, 89, 88, -1, 88, 89, 85, -1,
 88, 85, 81, -1, 105, 88, 113, -1, 113, 88, 104, -1,
 113, 104, 112, -1, 112, 120, 113, -1, 113, 120, 128, -1,
 113, 128, 121, -1, 81, 73, 88, -1, 88, 73, 69, -1,
 88, 69, 61, -1, 68, 72, 88, -1, 88, 72, 80, -1,
 88, 80, 84, -1, 128, 136, 140, -1, 61, 56, 88, -1,
 88, 56, 60, -1, 88, 60, 68, -1, 140, 137, 128, -1,
 128, 137, 129, -1, 128, 129, 121, -1, 437, 444, 445, -1,
 445, 444, 434, -1, 445, 434, 435, -1, 435, 434, 422, -1,
 435, 422, 423, -1, 423, 422, 404, -1, 423, 404, 405, -1,
 405, 404, 368, -1, 405, 368, 369, -1, 369, 368, 328, -1,
 369, 328, 329, -1, 329, 328, 280, -1, 329, 280, 281, -1,
 281, 280, 246, -1, 281, 246, 247, -1, 247, 246, 216, -1,
 247, 216, 217, -1, 217, 216, 172, -1, 217, 172, 173, -1,
 173, 172, 132, -1, 173, 132, 133, -1, 133, 132, 96, -1,
 133, 96, 97, -1, 97, 96, 76, -1, 97, 76, 77, -1,
 77, 76, 64, -1, 77, 64, 65, -1, 65, 64, 58, -1,
 65, 58, 59, -1, 59, 58, 66, -1, 59, 66, 67, -1,
 67, 66, 78, -1, 67, 78, 79, -1, 79, 78, 98, -1,
 79, 98, 99, -1, 99, 98, 134, -1, 99, 134, 135, -1,
 135, 134, 174, -1, 135, 174, 175, -1, 175, 174, 218, -1,
 175, 218, 219, -1, 219, 218, 248, -1, 219, 248, 249, -1,
 249, 248, 282, -1, 249, 282, 283, -1, 283, 282, 330, -1,
 283, 330, 331, -1, 331, 330, 370, -1, 331, 370, 371, -1,
 371, 370, 406, -1, 371, 406, 407, -1, 407, 406, 424, -1,
 407, 424, 425, -1, 425, 424, 436, -1, 425, 436, 437, -1,
 437, 436, 444, -1, 471, 41, 476, -1, 476, 41, 46, -1,
 40, 470, 45, -1, 45, 470, 475, -1, 40, 41, 470, -1,
 470, 41, 471, -1, 237, 259, 252, -1, 252, 259, 271, -1,
 252, 271, 269, -1, 269, 271, 291, -1, 269, 291, 289, -1,
 289, 291, 307, -1, 289, 307, 305, -1, 305, 307, 319, -1,
 305, 319, 317, -1, 317, 319, 339, -1, 317, 339, 337, -1,
 337, 339, 343, -1, 337, 343, 342, -1, 342, 343, 338, -1,
 342, 338, 336, -1, 336, 338, 318, -1, 336, 318, 316, -1,
 316, 318, 306, -1, 316, 306, 304, -1, 304, 306, 290, -1,
 304, 290, 288, -1, 288, 290, 270, -1, 288, 270, 268, -1,
 268, 270, 258, -1, 268, 258, 251, -1, 251, 258, 238, -1,
 251, 238, 236, -1, 236, 238, 214, -1, 236, 214, 212, -1,
 212, 214, 202, -1, 212, 202, 200, -1, 200, 202, 186, -1,
 200, 186, 184, -1, 184, 186, 170, -1, 184, 170, 168, -1,
 168, 170, 163, -1, 168, 163, 162, -1, 162, 163, 171, -1,
 162, 171, 169, -1, 169, 171, 187, -1, 169, 187, 185, -1,
 185, 187, 203, -1, 185, 203, 201, -1, 201, 203, 215, -1,
 201, 215, 213, -1, 213, 215, 239, -1, 213, 239, 237, -1,
 237, 239, 259, -1, 401, 413, 412, -1, 412, 413, 402, -1,
 412, 402, 400, -1, 400, 402, 390, -1, 400, 390, 388, -1,
 388, 390, 358, -1, 388, 358, 356, -1, 356, 358, 326, -1,
 356, 326, 324, -1, 324, 326, 294, -1, 324, 294, 292, -1,
 292, 294, 262, -1, 292, 262, 260, -1, 260, 262, 230, -1,
 260, 230, 228, -1, 228, 230, 194, -1, 228, 194, 192, -1,
 192, 194, 158, -1, 192, 158, 156, -1, 156, 158, 126, -1,
 156, 126, 124, -1, 124, 126, 110, -1, 124, 110, 108, -1,
 108, 110, 94, -1, 108, 94, 92, -1, 92, 94, 95, -1,
 92, 95, 93, -1, 93, 95, 111, -1, 93, 111, 109, -1,
 109, 111, 127, -1, 109, 127, 125, -1, 125, 127, 159, -1,
 125, 159, 157, -1, 157, 159, 195, -1, 157, 195, 193, -1,
 193, 195, 231, -1, 193, 231, 229, -1, 229, 231, 263, -1,
 229, 263, 261, -1, 261, 263, 295, -1, 261, 295, 293, -1,
 293, 295, 327, -1, 293, 327, 325, -1, 325, 327, 359, -1,
 325, 359, 357, -1, 357, 359, 391, -1, 357, 391, 389, -1,
 389, 391, 403, -1, 389, 403, 401, -1, 401, 403, 413, -1,
 108, 92, 143, -1, 143, 92, 93, -1, 143, 93, 147, -1,
 147, 93, 109, -1, 147, 109, 155, -1, 155, 109, 125, -1,
 155, 125, 179, -1, 179, 125, 157, -1, 179, 157, 207, -1,
 207, 157, 193, -1, 207, 193, 227, -1, 227, 193, 229, -1,
 227, 229, 256, -1, 256, 229, 261, -1, 256, 261, 275, -1,
 275, 261, 293, -1, 275, 293, 299, -1, 299, 293, 325, -1,
 299, 325, 323, -1, 323, 325, 357, -1, 323, 357, 347, -1,
 347, 357, 389, -1, 347, 389, 355, -1, 355, 389, 401, -1,
 355, 401, 363, -1, 363, 401, 412, -1, 363, 412, 354, -1,
 354, 412, 400, -1, 354, 400, 346, -1, 346, 400, 388, -1,
 346, 388, 322, -1, 322, 388, 356, -1, 322, 356, 298, -1,
 298, 356, 324, -1, 298, 324, 274, -1, 274, 324, 292, -1,
 274, 292, 255, -1, 255, 292, 260, -1, 255, 260, 226, -1,
 226, 260, 228, -1, 226, 228, 206, -1, 206, 228, 192, -1,
 206, 192, 178, -1, 178, 192, 156, -1, 178, 156, 154, -1,
 154, 156, 124, -1, 154, 124, 146, -1, 146, 124, 108, -1,
 146, 108, 143, -1, 353, 363, 362, -1, 362, 363, 354, -1,
 362, 354, 352, -1, 352, 354, 346, -1, 352, 346, 344, -1,
 344, 346, 322, -1, 344, 322, 320, -1, 320, 322, 298, -1,
 320, 298, 296, -1, 296, 298, 274, -1, 296, 274, 272, -1,
 272, 274, 255, -1, 272, 255, 253, -1, 253, 255, 226, -1,
 253, 226, 224, -1, 224, 226, 206, -1, 224, 206, 204, -1,
 204, 206, 178, -1, 204, 178, 176, -1, 176, 178, 154, -1,
 176, 154, 152, -1, 152, 154, 146, -1, 152, 146, 144, -1,
 144, 146, 143, -1, 144, 143, 142, -1, 142, 143, 147, -1,
 142, 147, 145, -1, 145, 147, 155, -1, 145, 155, 153, -1,
 153, 155, 179, -1, 153, 179, 177, -1, 177, 179, 207, -1,
 177, 207, 205, -1, 205, 207, 227, -1, 205, 227, 225, -1,
 225, 227, 256, -1, 225, 256, 254, -1, 254, 256, 275, -1,
 254, 275, 273, -1, 273, 275, 299, -1, 273, 299, 297, -1,
 297, 299, 323, -1, 297, 323, 321, -1, 321, 323, 347, -1,
 321, 347, 345, -1, 345, 347, 355, -1, 345, 355, 353, -1,
 353, 355, 363, -1, 448, 449, 446, -1, 446, 449, 447, -1,
 397, 448, 396, -1, 396, 448, 446, -1, 397, 396, 380, -1,
 397, 380, 381, -1, 381, 380, 348, -1, 381, 348, 349, -1,
 349, 348, 308, -1, 349, 308, 309, -1, 309, 308, 276, -1,
 309, 276, 277, -1, 277, 276, 240, -1, 277, 240, 243, -1,
 243, 240, 220, -1, 243, 220, 221, -1, 221, 220, 188, -1,
 221, 188, 189, -1, 189, 188, 148, -1, 189, 148, 149, -1,
 149, 148, 116, -1, 149, 116, 117, -1, 117, 116, 100, -1,
 117, 100, 101, -1, 50, 101, 48, -1, 48, 101, 100, -1,
 51, 50, 49, -1, 49, 50, 48, -1, 52, 53, 54, -1,
 54, 53, 55, -1, 102, 52, 103, -1, 103, 52, 54, -1,
 102, 103, 119, -1, 102, 119, 118, -1, 118, 119, 151, -1,
 118, 151, 150, -1, 150, 151, 191, -1, 150, 191, 190, -1,
 190, 191, 223, -1, 190, 223, 222, -1, 222, 223, 257, -1,
 222, 257, 250, -1, 250, 257, 279, -1, 250, 279, 278, -1,
 278, 279, 311, -1, 278, 311, 310, -1, 310, 311, 351, -1,
 310, 351, 350, -1, 350, 351, 383, -1, 350, 383, 382, -1,
 382, 383, 399, -1, 382, 399, 398, -1, 450, 398, 452, -1,
 452, 398, 399, -1, 451, 450, 453, -1, 453, 450, 452, -1,
 481, 464, 479, -1, 479, 464, 456, -1, 497, 481, 495, -1,
 495, 481, 479, -1, 496, 497, 494, -1, 494, 497, 495, -1,
 488, 496, 486, -1, 486, 496, 494, -1, 489, 488, 487, -1,
 487, 488, 486, -1, 480, 489, 478, -1, 478, 489, 487, -1,
 463, 480, 455, -1, 455, 480, 478, -1, 18, 33, 16, -1,
 16, 33, 25, -1, 11, 18, 9, -1, 9, 18, 16, -1,
 10, 11, 8, -1, 8, 11, 9, -1, 2, 10, 0, -1,
 0, 10, 8, -1, 3, 2, 1, -1, 1, 2, 0, -1,
 19, 3, 17, -1, 17, 3, 1, -1, 34, 19, 26, -1,
 26, 19, 17, -1, 21, 38, 23, -1, 23, 38, 44, -1,
 5, 21, 7, -1, 7, 21, 23, -1, 4, 5, 6, -1,
 6, 5, 7, -1, 12, 4, 14, -1, 14, 4, 6, -1,
 13, 12, 15, -1, 15, 12, 14, -1, 20, 13, 22, -1,
 22, 13, 15, -1, 37, 20, 43, -1, 43, 20, 22, -1,
 482, 467, 484, -1, 484, 467, 473, -1, 491, 482, 493, -1,
 493, 482, 484, -1, 490, 491, 492, -1, 492, 491, 493, -1,
 498, 490, 500, -1, 500, 490, 492, -1, 499, 498, 501, -1,
 501, 498, 500, -1, 483, 499, 485, -1, 485, 499, 501, -1,
 468, 483, 474, -1, 474, 483, 485, -1
]
normalIndex [
 87, 87, 87, -1, 87, 87, 87, -1, 87, 87, 87, -1,
 87, 87, 87, -1, 87, 87, 87, -1, 87, 87, 87, -1,
 87, 87, 87, -1, 87, 87, 87, -1, 87, 87, 87, -1,
 87, 87, 87, -1, 87, 87, 87, -1, 87, 87, 87, -1,
 87, 87, 87, -1, 87, 87, 87, -1, 87, 87, 87, -1,
 87, 87, 87, -1, 0, 0, 0, -1, 0, 0, 0, -1,
 0, 0, 0, -1, 0, 0, 0, -1, 0, 0, 0, -1,
 0, 0, 0, -1, 0, 0, 0, -1, 0, 0, 0, -1,
 0, 0, 0, -1, 0, 0, 0, -1, 0, 0, 0, -1,
 0, 0, 0, -1, 0, 0, 0, -1, 0, 0, 0, -1,
 0, 0, 0, -1, 0, 0, 0, -1, 43, 43, 43, -1,
 43, 43, 43, -1, 43, 43, 43, -1, 43, 43, 43, -1,
 45, 45, 45, -1, 45, 45, 45, -1, 45, 45, 45, -1,
 45, 45, 45, -1, 45, 45, 45, -1, 45, 45, 45, -1,
 45, 45, 45, -1, 45, 45, 45, -1, 45, 45, 45, -1,
 45, 45, 45, -1, 45, 45, 45, -1, 45, 45, 45, -1,
 45, 45, 45, -1, 45, 45, 45, -1, 45, 45, 45, -1,
 45, 45, 45, -1, 45, 45, 45, -1, 45, 45, 45, -1,
 45, 45, 45, -1, 45, 45, 45, -1, 45, 45, 45, -1,
 45, 45, 45, -1, 45, 45, 45, -1, 45, 45, 45, -1,
 45, 45, 45, -1, 45, 45, 45, -1, 45, 45, 45, -1,
 45, 45, 45, -1, 45, 45, 45, -1, 45, 45, 45, -1,
 45, 45, 45, -1, 45, 45, 45, -1, 45, 45, 45, -1,
 45, 45, 45, -1, 45, 45, 45, -1, 45, 45, 45, -1,
 45, 45, 45, -1, 45, 45, 45, -1, 45, 45, 45, -1,
 45, 45, 45, -1, 45, 45, 45, -1, 45, 45, 45, -1,
 45, 45, 45, -1, 45, 45, 45, -1, 45, 45, 45, -1,
 45, 45, 45, -1, 45, 45, 45, -1, 45, 45, 45, -1,
 45, 45, 45, -1, 45, 45, 45, -1, 45, 45, 45, -1,
 45, 45, 45, -1, 45, 45, 45, -1, 45, 45, 45, -1,
 45, 45, 45, -1, 45, 45, 45, -1, 45, 45, 45, -1,
 45, 45, 45, -1, 45, 45, 45, -1, 45, 45, 45, -1,
 45, 45, 45, -1, 45, 45, 45, -1, 45, 45, 45, -1,
 45, 45, 45, -1, 45, 45, 45, -1, 45, 45, 45, -1,
 45, 45, 45, -1, 45, 45, 45, -1, 45, 45, 45, -1,
 45, 45, 45, -1, 45, 45, 45, -1, 45, 45, 45, -1,
 45, 45, 45, -1, 45, 45, 45, -1, 45, 45, 45, -1,
 45, 45, 45, -1, 45, 45, 45, -1, 45, 45, 45, -1,
 45, 45, 45, -1, 45, 45, 45, -1, 45, 45, 45, -1,
 45, 45, 45, -1, 45, 45, 45, -1, 45, 45, 45, -1,
 45, 45, 45, -1, 45, 45, 45, -1, 42, 42, 42, -1,
 42, 42, 42, -1, 42, 42, 42, -1, 42, 42, 42, -1,
 42, 42, 42, -1, 42, 42, 42, -1, 42, 42, 42, -1,
 42, 42, 42, -1, 42, 42, 42, -1, 42, 42, 42, -1,
 42, 42, 42, -1, 42, 42, 42, -1, 42, 42, 42, -1,
 42, 42, 42, -1, 42, 42, 42, -1, 42, 42, 42, -1,
 42, 42, 42, -1, 42, 42, 42, -1, 42, 42, 42, -1,
 42, 42, 42, -1, 42, 42, 42, -1, 42, 42, 42, -1,
 42, 42, 42, -1, 42, 42, 42, -1, 42, 42, 42, -1,
 42, 42, 42, -1, 42, 42, 42, -1, 42, 42, 42, -1,
 42, 42, 42, -1, 42, 42, 42, -1, 42, 42, 42, -1,
 42, 42, 42, -1, 42, 42, 42, -1, 42, 42, 42, -1,
 42, 42, 42, -1, 42, 42, 42, -1, 42, 42, 42, -1,
 42, 42, 42, -1, 42, 42, 42, -1, 42, 42, 42, -1,
 42, 42, 42, -1, 42, 42, 42, -1, 42, 42, 42, -1,
 42, 42, 42, -1, 42, 42, 42, -1, 42, 42, 42, -1,
 42, 42, 42, -1, 42, 42, 42, -1, 42, 42, 42, -1,
 42, 42, 42, -1, 42, 42, 42, -1, 42, 42, 42, -1,
 42, 42, 42, -1, 42, 42, 42, -1, 42, 42, 42, -1,
 42, 42, 42, -1, 42, 42, 42, -1, 42, 42, 42, -1,
 42, 42, 42, -1, 42, 42, 42, -1, 42, 42, 42, -1,
 42, 42, 42, -1, 42, 42, 42, -1, 42, 42, 42, -1,
 42, 42, 42, -1, 42, 42, 42, -1, 42, 42, 42, -1,
 42, 42, 42, -1, 42, 42, 42, -1, 42, 42, 42, -1,
 42, 42, 42, -1, 42, 42, 42, -1, 42, 42, 42, -1,
 42, 42, 42, -1, 42, 42, 42, -1, 42, 42, 42, -1,
 42, 42, 42, -1, 42, 42, 42, -1, 42, 42, 42, -1,
 42, 42, 42, -1, 42, 42, 42, -1, 42, 42, 42, -1,
 42, 42, 42, -1, 42, 42, 42, -1, 42, 42, 42, -1,
 0, 0, 0, -1, 0, 0, 0, -1, 45, 45, 45, -1,
 45, 45, 45, -1, 87, 87, 87, -1, 87, 87, 87, -1,
 43, 43, 43, -1, 43, 43, 43, -1, 43, 43, 43, -1,
 43, 43, 43, -1, 43, 43, 43, -1, 43, 43, 43, -1,
 43, 43, 43, -1, 43, 43, 43, -1, 43, 43, 43, -1,
 43, 43, 43, -1, 43, 43, 43, -1, 43, 43, 43, -1,
 43, 43, 43, -1, 43, 43, 43, -1, 43, 43, 43, -1,
 43, 43, 43, -1, 43, 43, 43, -1, 43, 43, 43, -1,
 43, 43, 43, -1, 43, 43, 43, -1, 43, 43, 43, -1,
 43, 43, 43, -1, 43, 43, 43, -1, 43, 43, 43, -1,
 43, 43, 43, -1, 43, 43, 43, -1, 43, 43, 43, -1,
 43, 43, 43, -1, 43, 43, 43, -1, 43, 43, 43, -1,
 43, 43, 43, -1, 43, 43, 43, -1, 44, 44, 44, -1,
 44, 44, 44, -1, 44, 44, 44, -1, 44, 44, 44, -1,
 44, 44, 44, -1, 44, 44, 44, -1, 44, 44, 44, -1,
 44, 44, 44, -1, 44, 44, 44, -1, 44, 44, 44, -1,
 44, 44, 44, -1, 44, 44, 44, -1, 44, 44, 44, -1,
 44, 44, 44, -1, 44, 44, 44, -1, 44, 44, 44, -1,
 44, 44, 44, -1, 44, 44, 44, -1, 44, 44, 44, -1,
 44, 44, 44, -1, 44, 44, 44, -1, 44, 44, 44, -1,
 44, 44, 44, -1, 44, 44, 44, -1, 44, 44, 44, -1,
 44, 44, 44, -1, 44, 44, 44, -1, 44, 44, 44, -1,
 44, 44, 44, -1, 44, 44, 44, -1, 44, 44, 44, -1,
 44, 44, 44, -1, 42, 42, 42, -1, 42, 42, 42, -1,
 42, 42, 42, -1, 42, 42, 42, -1, 42, 42, 42, -1,
 42, 42, 42, -1, 42, 42, 42, -1, 42, 42, 42, -1,
 42, 42, 42, -1, 42, 42, 42, -1, 42, 42, 42, -1,
 42, 42, 42, -1, 42, 42, 42, -1, 42, 42, 42, -1,
 42, 42, 42, -1, 42, 42, 42, -1, 42, 42, 42, -1,
 42, 42, 42, -1, 42, 42, 42, -1, 42, 42, 42, -1,
 42, 42, 42, -1, 42, 42, 42, -1, 42, 42, 42, -1,
 42, 42, 42, -1, 42, 42, 42, -1, 42, 42, 42, -1,
 42, 42, 42, -1, 42, 42, 42, -1, 42, 42, 42, -1,
 42, 42, 42, -1, 42, 42, 42, -1, 42, 42, 42, -1,
 42, 42, 42, -1, 42, 42, 42, -1, 42, 42, 42, -1,
 42, 42, 42, -1, 42, 42, 42, -1, 42, 42, 42, -1,
 42, 42, 42, -1, 42, 42, 42, -1, 42, 42, 42, -1,
 42, 42, 42, -1, 42, 42, 42, -1, 42, 42, 42, -1,
 42, 42, 42, -1, 42, 42, 42, -1, 42, 42, 42, -1,
 42, 42, 42, -1, 42, 42, 42, -1, 42, 42, 42, -1,
 42, 42, 42, -1, 42, 42, 42, -1, 42, 42, 42, -1,
 42, 42, 42, -1, 42, 42, 42, -1, 42, 42, 42, -1,
 42, 42, 42, -1, 42, 42, 42, -1, 42, 42, 42, -1,
 42, 42, 42, -1, 42, 42, 42, -1, 42, 42, 42, -1,
 42, 42, 42, -1, 42, 42, 42, -1, 42, 42, 42, -1,
 42, 42, 42, -1, 42, 42, 42, -1, 42, 42, 42, -1,
 42, 42, 42, -1, 42, 42, 42, -1, 42, 42, 42, -1,
 42, 42, 42, -1, 42, 42, 42, -1, 42, 42, 42, -1,
 42, 42, 42, -1, 42, 42, 42, -1, 42, 42, 42, -1,
 42, 42, 42, -1, 42, 42, 42, -1, 42, 42, 42, -1,
 42, 42, 42, -1, 42, 42, 42, -1, 42, 42, 42, -1,
 42, 42, 42, -1, 42, 42, 42, -1, 42, 42, 42, -1,
 42, 42, 42, -1, 42, 42, 42, -1, 42, 42, 42, -1,
 42, 42, 42, -1, 42, 42, 42, -1, 42, 42, 42, -1,
 42, 42, 42, -1, 42, 42, 42, -1, 42, 42, 42, -1,
 42, 42, 42, -1, 42, 42, 42, -1, 42, 42, 42, -1,
 42, 42, 42, -1, 42, 42, 42, -1, 42, 42, 42, -1,
 42, 42, 42, -1, 42, 42, 42, -1, 42, 42, 42, -1,
 42, 42, 42, -1, 42, 42, 42, -1, 42, 42, 42, -1,
 42, 42, 42, -1, 42, 42, 42, -1, 42, 42, 42, -1,
 42, 42, 42, -1, 43, 43, 43, -1, 43, 43, 43, -1,
 42, 42, 42, -1, 42, 42, 42, -1, 45, 45, 45, -1,
 45, 45, 45, -1, 45, 45, 45, -1, 45, 45, 45, -1,
 45, 45, 45, -1, 45, 45, 45, -1, 45, 45, 45, -1,
 45, 45, 45, -1, 45, 45, 45, -1, 45, 45, 45, -1,
 45, 45, 45, -1, 45, 45, 45, -1, 45, 45, 45, -1,
 45, 45, 45, -1, 45, 45, 45, -1, 45, 45, 45, -1,
 45, 45, 45, -1, 45, 45, 45, -1, 45, 45, 45, -1,
 45, 45, 45, -1, 45, 45, 45, -1, 45, 45, 45, -1,
 45, 45, 45, -1, 45, 45, 45, -1, 45, 45, 45, -1,
 45, 45, 45, -1, 45, 45, 45, -1, 45, 45, 45, -1,
 45, 45, 45, -1, 45, 45, 45, -1, 45, 45, 45, -1,
 45, 45, 45, -1, 45, 45, 45, -1, 45, 45, 45, -1,
 45, 45, 45, -1, 45, 45, 45, -1, 45, 45, 45, -1,
 45, 45, 45, -1, 45, 45, 45, -1, 45, 45, 45, -1,
 45, 45, 45, -1, 45, 45, 45, -1, 45, 45, 45, -1,
 45, 45, 45, -1, 45, 45, 45, -1, 45, 45, 45, -1,
 45, 45, 45, -1, 45, 45, 45, -1, 45, 45, 45, -1,
 45, 45, 45, -1, 45, 45, 45, -1, 45, 45, 45, -1,
 45, 45, 45, -1, 45, 45, 45, -1, 45, 45, 45, -1,
 45, 45, 45, -1, 45, 45, 45, -1, 45, 45, 45, -1,
 45, 45, 45, -1, 43, 43, 43, -1, 43, 43, 43, -1,
 44, 44, 44, -1, 44, 44, 44, -1, 43, 43, 43, -1,
 43, 43, 43, -1, 42, 42, 42, -1, 42, 42, 42, -1,
 54, 44, 44, -1, 44, 44, 34, -1, 44, 34, 34, -1,
 34, 34, 27, -1, 34, 27, 27, -1, 27, 27, 20, -1,
 27, 20, 20, -1, 20, 20, 13, -1, 20, 13, 13, -1,
 13, 13, 6, -1, 13, 6, 6, -1, 6, 6, 0, -1,
 6, 0, 0, -1, 0, 0, 5, -1, 0, 5, 5, -1,
 5, 5, 12, -1, 5, 12, 12, -1, 12, 12, 19, -1,
 12, 19, 19, -1, 19, 19, 26, -1, 19, 26, 26, -1,
 26, 26, 33, -1, 26, 33, 33, -1, 33, 33, 43, -1,
 33, 43, 43, -1, 43, 43, 53, -1, 43, 53, 53, -1,
 53, 53, 60, -1, 53, 60, 60, -1, 60, 60, 67, -1,
 60, 67, 67, -1, 67, 67, 74, -1, 67, 74, 74, -1,
 74, 74, 81, -1, 74, 81, 81, -1, 81, 81, 87, -1,
 81, 87, 87, -1, 87, 87, 82, -1, 87, 82, 82, -1,
 82, 82, 75, -1, 82, 75, 75, -1, 75, 75, 68, -1,
 75, 68, 68, -1, 68, 68, 61, -1, 68, 61, 61, -1,
 61, 61, 54, -1, 61, 54, 54, -1, 54, 54, 44, -1,
 54, 44, 44, -1, 44, 44, 34, -1, 44, 34, 34, -1,
 34, 34, 27, -1, 34, 27, 27, -1, 27, 27, 20, -1,
 27, 20, 20, -1, 20, 20, 13, -1, 20, 13, 13, -1,
 13, 13, 6, -1, 13, 6, 6, -1, 6, 6, 0, -1,
 6, 0, 0, -1, 0, 0, 5, -1, 0, 5, 5, -1,
 5, 5, 12, -1, 5, 12, 12, -1, 12, 12, 19, -1,
 12, 19, 19, -1, 19, 19, 26, -1, 19, 26, 26, -1,
 26, 26, 33, -1, 26, 33, 33, -1, 33, 33, 43, -1,
 33, 43, 43, -1, 43, 43, 53, -1, 43, 53, 53, -1,
 53, 53, 60, -1, 53, 60, 60, -1, 60, 60, 67, -1,
 60, 67, 67, -1, 67, 67, 74, -1, 67, 74, 74, -1,
 74, 74, 81, -1, 74, 81, 81, -1, 81, 81, 87, -1,
 81, 87, 87, -1, 87, 87, 82, -1, 87, 82, 82, -1,
 82, 82, 75, -1, 82, 75, 75, -1, 75, 75, 68, -1,
 75, 68, 68, -1, 68, 68, 61, -1, 68, 61, 61, -1,
 61, 61, 54, -1, 61, 54, 54, -1, 54, 54, 44, -1,
 42, 42, 42, -1, 42, 42, 42, -1, 42, 42, 42, -1,
 42, 42, 42, -1, 42, 42, 42, -1, 42, 42, 42, -1,
 42, 42, 42, -1, 42, 42, 42, -1, 42, 42, 42, -1,
 42, 42, 42, -1, 42, 42, 42, -1, 42, 42, 42, -1,
 42, 42, 42, -1, 42, 42, 42, -1, 42, 42, 42, -1,
 42, 42, 42, -1, 42, 42, 42, -1, 42, 42, 42, -1,
 42, 42, 42, -1, 42, 42, 42, -1, 42, 42, 42, -1,
 42, 42, 42, -1, 54, 44, 44, -1, 44, 44, 34, -1,
 44, 34, 34, -1, 34, 34, 27, -1, 34, 27, 27, -1,
 27, 27, 20, -1, 27, 20, 20, -1, 20, 20, 13, -1,
 20, 13, 13, -1, 13, 13, 6, -1, 13, 6, 6, -1,
 6, 6, 0, -1, 6, 0, 0, -1, 0, 0, 5, -1,
 0, 5, 5, -1, 5, 5, 12, -1, 5, 12, 12, -1,
 12, 12, 19, -1, 12, 19, 19, -1, 19, 19, 26, -1,
 19, 26, 26, -1, 26, 26, 33, -1, 26, 33, 33, -1,
 33, 33, 43, -1, 33, 43, 43, -1, 43, 43, 53, -1,
 43, 53, 53, -1, 53, 53, 60, -1, 53, 60, 60, -1,
 60, 60, 67, -1, 60, 67, 67, -1, 67, 67, 74, -1,
 67, 74, 74, -1, 74, 74, 81, -1, 74, 81, 81, -1,
 81, 81, 87, -1, 81, 87, 87, -1, 87, 87, 82, -1,
 87, 82, 82, -1, 82, 82, 75, -1, 82, 75, 75, -1,
 75, 75, 68, -1, 75, 68, 68, -1, 68, 68, 61, -1,
 68, 61, 61, -1, 61, 61, 54, -1, 61, 54, 54, -1,
 54, 54, 44, -1, 42, 42, 42, -1, 42, 42, 42, -1,
 42, 42, 42, -1, 42, 42, 42, -1, 42, 42, 42, -1,
 42, 42, 42, -1, 42, 42, 42, -1, 42, 42, 42, -1,
 42, 42, 42, -1, 42, 42, 42, -1, 42, 42, 42, -1,
 42, 42, 42, -1, 42, 42, 42, -1, 42, 42, 42, -1,
 42, 42, 42, -1, 42, 42, 42, -1, 42, 42, 42, -1,
 42, 42, 42, -1, 42, 42, 42, -1, 42, 42, 42, -1,
 42, 42, 42, -1, 42, 42, 42, -1, 1, 0, 0, -1,
 0, 0, 2, -1, 0, 2, 2, -1, 2, 2, 9, -1,
 2, 9, 9, -1, 9, 9, 16, -1, 9, 16, 16, -1,
 16, 16, 23, -1, 16, 23, 23, -1, 23, 23, 30, -1,
 23, 30, 30, -1, 30, 30, 37, -1, 30, 37, 37, -1,
 37, 37, 45, -1, 37, 45, 45, -1, 45, 45, 51, -1,
 45, 51, 51, -1, 51, 51, 58, -1, 51, 58, 58, -1,
 58, 58, 63, -1, 58, 63, 63, -1, 63, 63, 70, -1,
 63, 70, 70, -1, 70, 70, 77, -1, 70, 77, 77, -1,
 77, 77, 84, -1, 77, 84, 84, -1, 84, 84, 87, -1,
 84, 87, 87, -1, 87, 87, 83, -1, 87, 83, 83, -1,
 83, 83, 76, -1, 83, 76, 76, -1, 76, 76, 69, -1,
 76, 69, 69, -1, 69, 69, 62, -1, 69, 62, 62, -1,
 62, 62, 57, -1, 62, 57, 57, -1, 57, 57, 50, -1,
 57, 50, 50, -1, 50, 50, 42, -1, 50, 42, 42, -1,
 42, 42, 36, -1, 42, 36, 36, -1, 36, 36, 29, -1,
 36, 29, 29, -1, 29, 29, 22, -1, 29, 22, 22, -1,
 22, 22, 15, -1, 22, 15, 15, -1, 15, 15, 8, -1,
 15, 8, 8, -1, 8, 8, 1, -1, 8, 1, 1, -1,
 1, 1, 0, -1, 43, 43, 43, -1, 43, 43, 43, -1,
 44, 44, 44, -1, 44, 44, 44, -1, 45, 45, 45, -1,
 45, 45, 45, -1, 53, 43, 43, -1, 43, 43, 33, -1,
 43, 33, 33, -1, 33, 33, 26, -1, 33, 26, 26, -1,
 26, 26, 19, -1, 26, 19, 19, -1, 19, 19, 12, -1,
 19, 12, 12, -1, 12, 12, 5, -1, 12, 5, 5, -1,
 5, 5, 0, -1, 5, 0, 0, -1, 0, 0, 6, -1,
 0, 6, 6, -1, 6, 6, 13, -1, 6, 13, 13, -1,
 13, 13, 20, -1, 13, 20, 20, -1, 20, 20, 27, -1,
 20, 27, 27, -1, 27, 27, 34, -1, 27, 34, 34, -1,
 34, 34, 44, -1, 34, 44, 44, -1, 44, 44, 54, -1,
 44, 54, 54, -1, 54, 54, 61, -1, 54, 61, 61, -1,
 61, 61, 68, -1, 61, 68, 68, -1, 68, 68, 75, -1,
 68, 75, 75, -1, 75, 75, 82, -1, 75, 82, 82, -1,
 82, 82, 87, -1, 82, 87, 87, -1, 87, 87, 81, -1,
 87, 81, 81, -1, 81, 81, 74, -1, 81, 74, 74, -1,
 74, 74, 67, -1, 74, 67, 67, -1, 67, 67, 60, -1,
 67, 60, 60, -1, 60, 60, 53, -1, 60, 53, 53, -1,
 53, 53, 43, -1, 3, 0, 0, -1, 0, 0, 4, -1,
 0, 4, 4, -1, 4, 4, 11, -1, 4, 11, 11, -1,
 11, 11, 18, -1, 11, 18, 18, -1, 18, 18, 25, -1,
 18, 25, 25, -1, 25, 25, 32, -1, 25, 32, 32, -1,
 32, 32, 41, -1, 32, 41, 41, -1, 41, 41, 49, -1,
 41, 49, 49, -1, 49, 49, 56, -1, 49, 56, 56, -1,
 56, 56, 65, -1, 56, 65, 65, -1, 65, 65, 72, -1,
 65, 72, 72, -1, 72, 72, 79, -1, 72, 79, 79, -1,
 79, 79, 86, -1, 79, 86, 86, -1, 86, 86, 85, -1,
 86, 85, 85, -1, 85, 85, 78, -1, 85, 78, 78, -1,
 78, 78, 71, -1, 78, 71, 71, -1, 71, 71, 64, -1,
 71, 64, 64, -1, 64, 64, 55, -1, 64, 55, 55, -1,
 55, 55, 48, -1, 55, 48, 48, -1, 48, 48, 40, -1,
 48, 40, 40, -1, 40, 40, 31, -1, 40, 31, 31, -1,
 31, 31, 24, -1, 31, 24, 24, -1, 24, 24, 17, -1,
 24, 17, 17, -1, 17, 17, 10, -1, 17, 10, 10, -1,
 10, 10, 3, -1, 10, 3, 3, -1, 3, 3, 0, -1,
 45, 45, 45, -1, 45, 45, 45, -1, 45, 45, 45, -1,
 45, 45, 45, -1, 45, 45, 45, -1, 45, 45, 45, -1,
 45, 45, 45, -1, 45, 45, 45, -1, 45, 45, 45, -1,
 45, 45, 45, -1, 45, 45, 45, -1, 45, 45, 45, -1,
 45, 45, 45, -1, 45, 45, 45, -1, 45, 45, 45, -1,
 45, 45, 45, -1, 45, 45, 45, -1, 45, 45, 45, -1,
 45, 45, 45, -1, 45, 45, 45, -1, 45, 45, 45, -1,
 45, 45, 45, -1, 45, 45, 45, -1, 45, 45, 45, -1,
 45, 45, 45, -1, 45, 45, 45, -1, 45, 45, 45, -1,
 45, 45, 45, -1, 45, 45, 45, -1, 45, 45, 45, -1,
 45, 45, 45, -1, 45, 45, 45, -1, 45, 45, 45, -1,
 45, 45, 45, -1, 45, 45, 45, -1, 45, 45, 45, -1,
 45, 45, 45, -1, 45, 45, 45, -1, 45, 45, 45, -1,
 45, 45, 45, -1, 45, 45, 45, -1, 45, 45, 45, -1,
 45, 45, 45, -1, 45, 45, 45, -1, 45, 45, 45, -1,
 45, 45, 45, -1, 45, 45, 45, -1, 45, 45, 45, -1,
 45, 45, 45, -1, 5, 0, 0, -1, 0, 0, 6, -1,
 0, 6, 6, -1, 6, 6, 13, -1, 6, 13, 13, -1,
 13, 13, 20, -1, 13, 20, 20, -1, 20, 20, 27, -1,
 20, 27, 27, -1, 27, 27, 34, -1, 27, 34, 34, -1,
 34, 34, 44, -1, 34, 44, 44, -1, 44, 44, 54, -1,
 44, 54, 54, -1, 54, 54, 61, -1, 54, 61, 61, -1,
 61, 61, 68, -1, 61, 68, 68, -1, 68, 68, 75, -1,
 68, 75, 75, -1, 75, 75, 82, -1, 75, 82, 82, -1,
 82, 82, 87, -1, 82, 87, 87, -1, 87, 87, 81, -1,
 87, 81, 81, -1, 81, 81, 74, -1, 81, 74, 74, -1,
 74, 74, 67, -1, 74, 67, 67, -1, 67, 67, 60, -1,
 67, 60, 60, -1, 60, 60, 53, -1, 60, 53, 53, -1,
 53, 53, 43, -1, 53, 43, 43, -1, 43, 43, 33, -1,
 43, 33, 33, -1, 33, 33, 26, -1, 33, 26, 26, -1,
 26, 26, 19, -1, 26, 19, 19, -1, 19, 19, 12, -1,
 19, 12, 12, -1, 12, 12, 5, -1, 12, 5, 5, -1,
 5, 5, 0, -1, 87, 87, 87, -1, 87, 87, 87, -1,
 43, 43, 43, -1, 43, 43, 43, -1, 80, 80, 73, -1,
 80, 73, 73, -1, 73, 73, 66, -1, 73, 66, 66, -1,
 66, 66, 59, -1, 66, 59, 59, -1, 59, 59, 52, -1,
 59, 52, 52, -1, 52, 52, 43, -1, 52, 43, 43, -1,
 43, 43, 35, -1, 43, 35, 35, -1, 35, 35, 28, -1,
 35, 28, 28, -1, 28, 28, 21, -1, 28, 21, 21, -1,
 21, 21, 14, -1, 21, 14, 14, -1, 14, 14, 7, -1,
 14, 7, 7, -1, 43, 43, 43, -1, 43, 43, 43, -1,
 0, 0, 0, -1, 0, 0, 0, -1, 0, 0, 0, -1,
 0, 0, 0, -1, 43, 43, 43, -1, 43, 43, 43, -1,
 7, 7, 14, -1, 7, 14, 14, -1, 14, 14, 21, -1,
 14, 21, 21, -1, 21, 21, 28, -1, 21, 28, 28, -1,
 28, 28, 35, -1, 28, 35, 35, -1, 35, 35, 43, -1,
 35, 43, 43, -1, 43, 43, 52, -1, 43, 52, 52, -1,
 52, 52, 59, -1, 52, 59, 59, -1, 59, 59, 66, -1,
 59, 66, 66, -1, 66, 66, 73, -1, 66, 73, 73, -1,
 73, 73, 80, -1, 73, 80, 80, -1, 43, 43, 43, -1,
 43, 43, 43, -1, 87, 87, 87, -1, 87, 87, 87, -1,
 46, 46, 46, -1, 46, 46, 46, -1, 44, 44, 44, -1,
 44, 44, 44, -1, 87, 87, 87, -1, 87, 87, 87, -1,
 43, 43, 43, -1, 43, 43, 43, -1, 0, 0, 0, -1,
 0, 0, 0, -1, 43, 43, 43, -1, 43, 43, 43, -1,
 47, 47, 47, -1, 47, 47, 47, -1, 38, 38, 38, -1,
 38, 38, 38, -1, 43, 43, 43, -1, 43, 43, 43, -1,
 87, 87, 87, -1, 87, 87, 87, -1, 43, 43, 43, -1,
 43, 43, 43, -1, 0, 0, 0, -1, 0, 0, 0, -1,
 44, 44, 44, -1, 44, 44, 44, -1, 39, 39, 39, -1,
 39, 39, 39, -1, 39, 39, 39, -1, 39, 39, 39, -1,
 44, 44, 44, -1, 44, 44, 44, -1, 0, 0, 0, -1,
 0, 0, 0, -1, 43, 43, 43, -1, 43, 43, 43, -1,
 87, 87, 87, -1, 87, 87, 87, -1, 43, 43, 43, -1,
 43, 43, 43, -1, 38, 38, 38, -1, 38, 38, 38, -1,
 47, 47, 47, -1, 47, 47, 47, -1, 43, 43, 43, -1,
 43, 43, 43, -1, 0, 0, 0, -1, 0, 0, 0, -1,
 43, 43, 43, -1, 43, 43, 43, -1, 87, 87, 87, -1,
 87, 87, 87, -1, 44, 44, 44, -1, 44, 44, 44, -1,
 46, 46, 46, -1, 46, 46, 46, -1
]
colorPerVertex FALSE
normalPerVertex TRUE
}
}
]
}
